

ADDING /work2/10162/piskuliche/frontera/Software/FE-Workflow/bin to $PATH... 

SOURCING amber.sh AVAILABLE IN /work2/10162/piskuliche/frontera/Software/amber24... 



 User defined lambda schedule... 

 The following lambda schedule will be used 
0.00000000 0.04347826 0.08695652 0.13043478 0.17391304 0.21739130 0.26086957 0.30434783 0.34782609 0.39130435 0.43478261 0.47826087 0.52173913 0.56521739 0.60869565 0.65217391 0.69565217 0.73913043 0.78260870 0.82608696 0.86956522 0.91304348 0.95652174 1.00000000



 setting up files in "2-state" mode... 



For all transformations identical number of water and ions will be added to both "aq" and "com" systems. In case of "com" systems, existing solvent configurations will be stripped before resolvating. 



Building topology+parameter files for "aq" systems. Water and Ions being added...


F3G~NOG-1_aq has 1971 waters, 5 Na+ ions, and 5 Cl- ions

F3G~NOG-2_aq has 1971 waters, 5 Na+ ions, and 5 Cl- ions


Done...



Building topology+parameter files for "com" systems. Water and Ions being added...


F3G~NOG-1_com has 12561 waters, 101 Na+ ions, and 34 Cl- ions

F3G~NOG-2_com has 12561 waters, 101 Na+ ions, and 34 Cl- ions


Done...

Done with F3G~NOG...
fix box

CPPTRAJ: Trajectory Analysis. V6.24.0 (AmberTools)
    ___  ___  ___  ___
     | \/ | \/ | \/ | 
    _|_/\_|_/\_|_/\_|_

| Date/time: 11/06/24 17:17:24
| Available memory: 196.199 GB

INPUT: Reading input from 'fix_box_aq_cpptraj.in'
  [parm F3G~NOG-1_aq.parm7]
	Reading 'F3G~NOG-1_aq.parm7' as Amber Topology
	Radius Set: modified Bondi radii (mbondi)
  [trajin F3G~NOG-1_aq.rst7]
	Reading 'F3G~NOG-1_aq.rst7' as Amber Restart
  [trajout F3G~NOG-1_aq.pdb pdb include_ep]
	Writing 'F3G~NOG-1_aq.pdb' as PDB
  [go]
---------- RUN BEGIN -------------------------------------------------

PARAMETER FILES (1 total):
 0: F3G~NOG-1_aq.parm7, 7931 atoms, 1983 res, box: Orthorhombic, 1983 mol, 1971 solvent

INPUT TRAJECTORIES (1 total):
 0: 'F3G~NOG-1_aq.rst7' is an AMBER restart file, no velocities, Parm F3G~NOG-1_aq.parm7 (Orthorhombic box) (reading 1 of 1)
  Coordinate processing will occur on 1 frames.

OUTPUT TRAJECTORIES (1 total):
  'F3G~NOG-1_aq.pdb' (1 frames) is a PDB file

BEGIN TRAJECTORY PROCESSING:
Warning: No PDB space group specified.
.....................................................
ACTIVE OUTPUT TRAJECTORIES (1):
  F3G~NOG-1_aq.pdb (coordinates, time, box)
----- F3G~NOG-1_aq.rst7 (1-1, 1) -----
100% Complete.

Read 1 frames and processed 1 frames.
TIME: Avg. throughput= 41.7119 frames / second.

ACTION OUTPUT:
TIME: Analyses took 0.0000 seconds.

RUN TIMING:
TIME:		Init               : 0.0000 s (  0.05%)
TIME:		Trajectory Process : 0.0240 s ( 99.46%)
TIME:		Action Post        : 0.0000 s (  0.00%)
TIME:		Analysis           : 0.0000 s (  0.00%)
TIME:		Data File Write    : 0.0000 s (  0.01%)
TIME:		Other              : 0.0001 s (  0.00%)
TIME:	Run Total 0.0241 s
---------- RUN END ---------------------------------------------------
  [quit]
TIME: Total execution time: 0.0413 seconds.
--------------------------------------------------------------------------------
To cite CPPTRAJ use:
Daniel R. Roe and Thomas E. Cheatham, III, "PTRAJ and CPPTRAJ: Software for
  Processing and Analysis of Molecular Dynamics Trajectory Data". J. Chem.
  Theory Comput., 2013, 9 (7), pp 3084-3095.


CPPTRAJ: Trajectory Analysis. V6.24.0 (AmberTools)
    ___  ___  ___  ___
     | \/ | \/ | \/ | 
    _|_/\_|_/\_|_/\_|_

| Date/time: 11/06/24 17:17:25
| Available memory: 196.197 GB

INPUT: Reading input from 'fix_box_aq_cpptraj.in'
  [parm F3G~NOG-2_aq.parm7]
	Reading 'F3G~NOG-2_aq.parm7' as Amber Topology
	Radius Set: modified Bondi radii (mbondi)
  [trajin F3G~NOG-2_aq.rst7]
	Reading 'F3G~NOG-2_aq.rst7' as Amber Restart
  [trajout F3G~NOG-2_aq.pdb pdb include_ep]
	Writing 'F3G~NOG-2_aq.pdb' as PDB
  [go]
---------- RUN BEGIN -------------------------------------------------

PARAMETER FILES (1 total):
 0: F3G~NOG-2_aq.parm7, 7931 atoms, 1983 res, box: Orthorhombic, 1983 mol, 1971 solvent

INPUT TRAJECTORIES (1 total):
 0: 'F3G~NOG-2_aq.rst7' is an AMBER restart file, no velocities, Parm F3G~NOG-2_aq.parm7 (Orthorhombic box) (reading 1 of 1)
  Coordinate processing will occur on 1 frames.

OUTPUT TRAJECTORIES (1 total):
  'F3G~NOG-2_aq.pdb' (1 frames) is a PDB file

BEGIN TRAJECTORY PROCESSING:
Warning: No PDB space group specified.
.....................................................
ACTIVE OUTPUT TRAJECTORIES (1):
  F3G~NOG-2_aq.pdb (coordinates, time, box)
----- F3G~NOG-2_aq.rst7 (1-1, 1) -----
100% Complete.

Read 1 frames and processed 1 frames.
TIME: Avg. throughput= 42.0062 frames / second.

ACTION OUTPUT:
TIME: Analyses took 0.0000 seconds.

RUN TIMING:
TIME:		Init               : 0.0000 s (  0.05%)
TIME:		Trajectory Process : 0.0238 s ( 99.47%)
TIME:		Action Post        : 0.0000 s (  0.00%)
TIME:		Analysis           : 0.0000 s (  0.00%)
TIME:		Data File Write    : 0.0000 s (  0.01%)
TIME:		Other              : 0.0001 s (  0.00%)
TIME:	Run Total 0.0239 s
---------- RUN END ---------------------------------------------------
  [quit]
TIME: Total execution time: 0.0411 seconds.
--------------------------------------------------------------------------------
To cite CPPTRAJ use:
Daniel R. Roe and Thomas E. Cheatham, III, "PTRAJ and CPPTRAJ: Software for
  Processing and Analysis of Molecular Dynamics Trajectory Data". J. Chem.
  Theory Comput., 2013, 9 (7), pp 3084-3095.


CPPTRAJ: Trajectory Analysis. V6.24.0 (AmberTools)
    ___  ___  ___  ___
     | \/ | \/ | \/ | 
    _|_/\_|_/\_|_/\_|_

| Date/time: 11/06/24 17:17:27
| Available memory: 196.190 GB

INPUT: Reading input from 'fix_box_com_cpptraj.in'
  [parm F3G~NOG-1_com.parm7]
	Reading 'F3G~NOG-1_com.parm7' as Amber Topology
	Radius Set: modified Bondi radii (mbondi)
  [trajin F3G~NOG-1_com.rst7]
	Reading 'F3G~NOG-1_com.rst7' as Amber Restart
  [trajout F3G~NOG-1_com.pdb pdb include_ep]
	Writing 'F3G~NOG-1_com.pdb' as PDB
  [go]
---------- RUN BEGIN -------------------------------------------------

PARAMETER FILES (1 total):
 0: F3G~NOG-1_com.parm7, 52594 atoms, 12766 res, box: Orthorhombic, 12699 mol, 12561 solvent

INPUT TRAJECTORIES (1 total):
 0: 'F3G~NOG-1_com.rst7' is an AMBER restart file, no velocities, Parm F3G~NOG-1_com.parm7 (Orthorhombic box) (reading 1 of 1)
  Coordinate processing will occur on 1 frames.

OUTPUT TRAJECTORIES (1 total):
  'F3G~NOG-1_com.pdb' (1 frames) is a PDB file

BEGIN TRAJECTORY PROCESSING:
Warning: No PDB space group specified.
.....................................................
ACTIVE OUTPUT TRAJECTORIES (1):
  F3G~NOG-1_com.pdb (coordinates, time, box)
----- F3G~NOG-1_com.rst7 (1-1, 1) -----
100% Complete.

Read 1 frames and processed 1 frames.
TIME: Avg. throughput= 6.3664 frames / second.

ACTION OUTPUT:
TIME: Analyses took 0.0000 seconds.

RUN TIMING:
TIME:		Init               : 0.0000 s (  0.01%)
TIME:		Trajectory Process : 0.1571 s ( 99.91%)
TIME:		Action Post        : 0.0000 s (  0.00%)
TIME:		Analysis           : 0.0000 s (  0.00%)
TIME:		Data File Write    : 0.0000 s (  0.00%)
TIME:		Other              : 0.0001 s (  0.00%)
TIME:	Run Total 0.1572 s
---------- RUN END ---------------------------------------------------
  [quit]
TIME: Total execution time: 0.2405 seconds.
--------------------------------------------------------------------------------
To cite CPPTRAJ use:
Daniel R. Roe and Thomas E. Cheatham, III, "PTRAJ and CPPTRAJ: Software for
  Processing and Analysis of Molecular Dynamics Trajectory Data". J. Chem.
  Theory Comput., 2013, 9 (7), pp 3084-3095.


CPPTRAJ: Trajectory Analysis. V6.24.0 (AmberTools)
    ___  ___  ___  ___
     | \/ | \/ | \/ | 
    _|_/\_|_/\_|_/\_|_

| Date/time: 11/06/24 17:17:35
| Available memory: 196.172 GB

INPUT: Reading input from 'fix_box_com_cpptraj.in'
  [parm F3G~NOG-2_com.parm7]
	Reading 'F3G~NOG-2_com.parm7' as Amber Topology
	Radius Set: modified Bondi radii (mbondi)
  [trajin F3G~NOG-2_com.rst7]
	Reading 'F3G~NOG-2_com.rst7' as Amber Restart
  [trajout F3G~NOG-2_com.pdb pdb include_ep]
	Writing 'F3G~NOG-2_com.pdb' as PDB
  [go]
---------- RUN BEGIN -------------------------------------------------

PARAMETER FILES (1 total):
 0: F3G~NOG-2_com.parm7, 52594 atoms, 12766 res, box: Orthorhombic, 12699 mol, 12561 solvent

INPUT TRAJECTORIES (1 total):
 0: 'F3G~NOG-2_com.rst7' is an AMBER restart file, no velocities, Parm F3G~NOG-2_com.parm7 (Orthorhombic box) (reading 1 of 1)
  Coordinate processing will occur on 1 frames.

OUTPUT TRAJECTORIES (1 total):
  'F3G~NOG-2_com.pdb' (1 frames) is a PDB file

BEGIN TRAJECTORY PROCESSING:
Warning: No PDB space group specified.
.....................................................
ACTIVE OUTPUT TRAJECTORIES (1):
  F3G~NOG-2_com.pdb (coordinates, time, box)
----- F3G~NOG-2_com.rst7 (1-1, 1) -----
100% Complete.

Read 1 frames and processed 1 frames.
TIME: Avg. throughput= 6.4310 frames / second.

ACTION OUTPUT:
TIME: Analyses took 0.0000 seconds.

RUN TIMING:
TIME:		Init               : 0.0000 s (  0.01%)
TIME:		Trajectory Process : 0.1555 s ( 99.91%)
TIME:		Action Post        : 0.0000 s (  0.00%)
TIME:		Analysis           : 0.0000 s (  0.00%)
TIME:		Data File Write    : 0.0000 s (  0.00%)
TIME:		Other              : 0.0001 s (  0.00%)
TIME:	Run Total 0.1556 s
---------- RUN END ---------------------------------------------------
  [quit]
TIME: Total execution time: 0.2406 seconds.
--------------------------------------------------------------------------------
To cite CPPTRAJ use:
Daniel R. Roe and Thomas E. Cheatham, III, "PTRAJ and CPPTRAJ: Software for
  Processing and Analysis of Molecular Dynamics Trajectory Data". J. Chem.
  Theory Comput., 2013, 9 (7), pp 3084-3095.

